@startuml StateDiagram-RaffleValidator

title Finite State Diagram - Raffle Validator
caption Diagram showing the state transitions of the Raffle Validator


!theme toy
hide empty description

[*] --> NEW : Initiate Raffle
NEW: Asset
NEW --> [*] : Canceled \n By Organizer
NEW --> EXPIRED : Commit deadline reached \n (and no tickets sold) 
EXPIRED #salmon --> [*] : Expired Closed \n By Organizer 


NEW --> COMMITTING : buyTickets (User, no, [ticketSecretHash] )

state COMMITTING #yellow {
    state "Selling tickets" as acc
    acc : ticketsSold :: [Ticket]
    acc --> acc : buyTickets \n(User, [ticketSecretHash])
}
state C <<choice>>
COMMITTING --> C : Commit deadline\n reached

C --> UNDERFUNDED : Minimum amount \nNOT reached
UNDERFUNDED #salmon  --> [*] : Underfunded Closed \n By Organizer 



UNDERFUNDED #salmon  --> UNDERFUNDED_EXPOSED : Close deadline reached \n(commit ddl +  X days)
UNDERFUNDED_EXPOSED #red  --> [*] : Underfunded Closed \n By Any  


C --> REVEALING : Minimum amount \nreached

state REVEALING #darkorange {
    state "Revealing secrets" as rv
    rv: secretsRevealed :: [TicketSecret]
    rv --> rv : revealSecrets \n( User, [(ticketSecretHash, secret)] )
}

REVEALING --> WINNER_SELECTED_BY_CRS :All secrets received

REVEALING --> UNREVEALED : Reveal deadline reached \n(before all secrets where revealed)

UNREVEALED #salmon --> [*] : Unrevealed Closed \n By Organizer 
UNREVEALED #salmon  --> UNREVEALED_EXPOSED #red : close deadline reached \n(reveal ddl +  X days)
UNREVEALED_EXPOSED #red  --> [*] : Unrevealed Closed \n By Any 



WINNER_SELECTED_BY_CRS #palegreen  --> [*] : Winner Selected Closed

@enduml